module json-validator

go 1.17

require (
	github.com/iancoleman/strcase v0.2.0
	github.com/pkg/errors v0.9.1
	github.com/stretchr/testify v1.7.0
	github.com/xeipuuv/gojsonschema v1.2.0
	goa.design/goa/v3 v3.5.5
)

require (
	github.com/davecgh/go-spew v1.1.1 // indirect
	github.com/dimfeld/httppath v0.0.0-20170720192232-ee938bf73598 // indirect
	github.com/dimfeld/httptreemux/v5 v5.4.0 // indirect
	github.com/google/uuid v1.3.0 // indirect
	github.com/gopherjs/gopherjs v1.17.2 // indirect
	github.com/gorilla/websocket v1.4.2 // indirect
	github.com/jtolds/gls v4.20.0+incompatible // indirect
	github.com/kr/text v0.2.0 // indirect
	github.com/manveru/faker v0.0.0-20171103152722-9fbc68a78c4d // indirect
	github.com/niemeyer/pretty v0.0.0-20200227124842-a10e7caefd8e // indirect
	github.com/pmezard/go-difflib v1.0.0 // indirect
	github.com/sergi/go-diff v1.2.0 // indirect
	github.com/smartystreets/assertions v1.13.0 // indirect
	github.com/xeipuuv/gojsonpointer v0.0.0-20180127040702-4e3ac2762d5f // indirect
	github.com/xeipuuv/gojsonreference v0.0.0-20180127040603-bd5ef7bd5415 // indirect
	github.com/zach-klippenstein/goregen v0.0.0-20160303162051-795b5e3961ea // indirect
	golang.org/x/mod v0.5.1 // indirect
	golang.org/x/sys v0.0.0-20220204135822-1c1b9b1eba6a // indirect
	golang.org/x/tools v0.1.9 // indirect
	golang.org/x/xerrors v0.0.0-20200804184101-5ec99f83aff1 // indirect
	gopkg.in/check.v1 v1.0.0-20200227125254-8fa46927fb4f // indirect
	gopkg.in/yaml.v2 v2.4.0 // indirect
	gopkg.in/yaml.v3 v3.0.0-20210107192922-496545a6307b // indirect
)
